<mxfile host="Electron" modified="2023-11-29T02:52:47.413Z" agent="Mozilla/5.0 (Windows NT 10.0; Win64; x64) AppleWebKit/537.36 (KHTML, like Gecko) draw.io/21.6.1 Chrome/112.0.5615.204 Electron/24.6.1 Safari/537.36" etag="emp7HRG5AT1Mhwm9fhDp" version="21.6.1" type="device">
  <diagram name="第 1 页" id="qqmEJxwwJz5qbpWFvGj8">
    <mxGraphModel dx="1098" dy="828" grid="1" gridSize="10" guides="1" tooltips="1" connect="1" arrows="1" fold="1" page="1" pageScale="1" pageWidth="1169" pageHeight="827" math="0" shadow="0">
      <root>
        <mxCell id="0" />
        <mxCell id="1" parent="0" />
        <mxCell id="bW95odGqxQcdRuqVzD2A-1" value="" style="rounded=0;whiteSpace=wrap;html=1;fillColor=#000000;strokeWidth=2;strokeColor=none;opacity=10;" vertex="1" parent="1">
          <mxGeometry x="210" y="170" width="30" height="30" as="geometry" />
        </mxCell>
        <mxCell id="bW95odGqxQcdRuqVzD2A-2" value="" style="rounded=0;whiteSpace=wrap;html=1;fillColor=#000000;strokeWidth=2;strokeColor=none;opacity=70;" vertex="1" parent="1">
          <mxGeometry x="180" y="170" width="30" height="30" as="geometry" />
        </mxCell>
        <mxCell id="bW95odGqxQcdRuqVzD2A-3" value="" style="rounded=0;whiteSpace=wrap;html=1;fillColor=#000000;strokeWidth=2;strokeColor=none;opacity=20;" vertex="1" parent="1">
          <mxGeometry x="210" y="200" width="30" height="30" as="geometry" />
        </mxCell>
        <mxCell id="bW95odGqxQcdRuqVzD2A-4" value="" style="rounded=0;whiteSpace=wrap;html=1;fillColor=#000000;strokeWidth=2;strokeColor=none;opacity=90;" vertex="1" parent="1">
          <mxGeometry x="180" y="200" width="30" height="30" as="geometry" />
        </mxCell>
        <mxCell id="bW95odGqxQcdRuqVzD2A-5" value="" style="rounded=0;whiteSpace=wrap;html=1;fillColor=#000000;strokeWidth=2;strokeColor=none;opacity=20;" vertex="1" parent="1">
          <mxGeometry x="240" y="170" width="30" height="30" as="geometry" />
        </mxCell>
        <mxCell id="bW95odGqxQcdRuqVzD2A-6" value="" style="rounded=0;whiteSpace=wrap;html=1;fillColor=#000000;strokeWidth=2;strokeColor=none;opacity=80;" vertex="1" parent="1">
          <mxGeometry x="180" y="230" width="30" height="30" as="geometry" />
        </mxCell>
        <mxCell id="bW95odGqxQcdRuqVzD2A-7" value="" style="rounded=0;whiteSpace=wrap;html=1;fillColor=#000000;strokeWidth=2;strokeColor=none;opacity=60;" vertex="1" parent="1">
          <mxGeometry x="240" y="230" width="30" height="30" as="geometry" />
        </mxCell>
        <mxCell id="bW95odGqxQcdRuqVzD2A-8" value="" style="rounded=0;whiteSpace=wrap;html=1;fillColor=#000000;strokeWidth=2;strokeColor=none;opacity=50;" vertex="1" parent="1">
          <mxGeometry x="210" y="230" width="30" height="30" as="geometry" />
        </mxCell>
        <mxCell id="bW95odGqxQcdRuqVzD2A-9" value="" style="endArrow=classic;html=1;rounded=0;fontSize=11;fontColor=default;strokeWidth=3;strokeColor=#b85450;fillColor=#f8cecc;" edge="1" parent="1">
          <mxGeometry width="50" height="50" relative="1" as="geometry">
            <mxPoint x="290" y="214.66" as="sourcePoint" />
            <mxPoint x="320" y="214.66" as="targetPoint" />
          </mxGeometry>
        </mxCell>
        <mxCell id="bW95odGqxQcdRuqVzD2A-10" value="&lt;font style=&quot;font-size: 15px&quot;&gt;gray scale&lt;/font&gt;" style="text;html=1;strokeColor=none;fillColor=none;align=center;verticalAlign=middle;whiteSpace=wrap;rounded=0;fontSize=17;fontColor=#4D4D4D;" vertex="1" parent="1">
          <mxGeometry x="185" y="278" width="80" height="30" as="geometry" />
        </mxCell>
        <mxCell id="bW95odGqxQcdRuqVzD2A-11" value="" style="rounded=0;whiteSpace=wrap;html=1;fillColor=#000000;strokeWidth=2;strokeColor=none;opacity=10;" vertex="1" parent="1">
          <mxGeometry x="240" y="200" width="30" height="30" as="geometry" />
        </mxCell>
        <mxCell id="bW95odGqxQcdRuqVzD2A-12" value="&lt;font style=&quot;font-size: 17px&quot; color=&quot;#4d4d4d&quot;&gt;0&lt;/font&gt;" style="rounded=0;whiteSpace=wrap;html=1;fillColor=none;strokeWidth=2;strokeColor=#4D4D4D;" vertex="1" parent="1">
          <mxGeometry x="360" y="170" width="30" height="30" as="geometry" />
        </mxCell>
        <mxCell id="bW95odGqxQcdRuqVzD2A-13" value="&lt;font style=&quot;font-size: 17px&quot; color=&quot;#4d4d4d&quot;&gt;1&lt;/font&gt;" style="rounded=0;whiteSpace=wrap;html=1;fillColor=none;strokeWidth=2;strokeColor=#4D4D4D;" vertex="1" parent="1">
          <mxGeometry x="330" y="170" width="30" height="30" as="geometry" />
        </mxCell>
        <mxCell id="bW95odGqxQcdRuqVzD2A-14" value="&lt;font style=&quot;font-size: 17px&quot; color=&quot;#4d4d4d&quot;&gt;0&lt;/font&gt;" style="rounded=0;whiteSpace=wrap;html=1;fillColor=none;strokeWidth=2;strokeColor=#4D4D4D;" vertex="1" parent="1">
          <mxGeometry x="360" y="200" width="30" height="30" as="geometry" />
        </mxCell>
        <mxCell id="bW95odGqxQcdRuqVzD2A-15" value="&lt;font style=&quot;font-size: 17px&quot; color=&quot;#4d4d4d&quot;&gt;1&lt;/font&gt;" style="rounded=0;whiteSpace=wrap;html=1;fillColor=none;strokeWidth=2;strokeColor=#4D4D4D;" vertex="1" parent="1">
          <mxGeometry x="330" y="200" width="30" height="30" as="geometry" />
        </mxCell>
        <mxCell id="bW95odGqxQcdRuqVzD2A-16" value="&lt;font style=&quot;font-size: 17px&quot; color=&quot;#4d4d4d&quot;&gt;0&lt;/font&gt;" style="rounded=0;whiteSpace=wrap;html=1;fillColor=none;strokeWidth=2;strokeColor=#4D4D4D;" vertex="1" parent="1">
          <mxGeometry x="390" y="170" width="30" height="30" as="geometry" />
        </mxCell>
        <mxCell id="bW95odGqxQcdRuqVzD2A-17" value="&lt;font style=&quot;font-size: 17px&quot; color=&quot;#4d4d4d&quot;&gt;1&lt;/font&gt;" style="rounded=0;whiteSpace=wrap;html=1;fillColor=none;strokeWidth=2;strokeColor=#4D4D4D;" vertex="1" parent="1">
          <mxGeometry x="330" y="230" width="30" height="30" as="geometry" />
        </mxCell>
        <mxCell id="bW95odGqxQcdRuqVzD2A-18" value="&lt;font style=&quot;font-size: 17px&quot; color=&quot;#4d4d4d&quot;&gt;1&lt;/font&gt;" style="rounded=0;whiteSpace=wrap;html=1;fillColor=none;strokeWidth=2;strokeColor=#4D4D4D;" vertex="1" parent="1">
          <mxGeometry x="390" y="230" width="30" height="30" as="geometry" />
        </mxCell>
        <mxCell id="bW95odGqxQcdRuqVzD2A-19" value="&lt;font style=&quot;font-size: 17px&quot; color=&quot;#4d4d4d&quot;&gt;1&lt;/font&gt;" style="rounded=0;whiteSpace=wrap;html=1;fillColor=none;strokeWidth=2;strokeColor=#4D4D4D;" vertex="1" parent="1">
          <mxGeometry x="360" y="230" width="30" height="30" as="geometry" />
        </mxCell>
        <mxCell id="bW95odGqxQcdRuqVzD2A-20" value="&lt;font style=&quot;font-size: 17px&quot; color=&quot;#4d4d4d&quot;&gt;0&lt;/font&gt;" style="rounded=0;whiteSpace=wrap;html=1;fillColor=none;strokeWidth=2;strokeColor=#4D4D4D;" vertex="1" parent="1">
          <mxGeometry x="390" y="200" width="30" height="30" as="geometry" />
        </mxCell>
        <mxCell id="bW95odGqxQcdRuqVzD2A-21" value="&lt;font style=&quot;font-size: 15px&quot;&gt;bits&lt;/font&gt;" style="text;html=1;strokeColor=none;fillColor=none;align=center;verticalAlign=middle;whiteSpace=wrap;rounded=0;fontSize=17;fontColor=#4D4D4D;" vertex="1" parent="1">
          <mxGeometry x="335" y="278" width="80" height="30" as="geometry" />
        </mxCell>
        <mxCell id="bW95odGqxQcdRuqVzD2A-23" value="" style="endArrow=classic;html=1;rounded=0;fontSize=11;fontColor=default;strokeWidth=3;strokeColor=#b85450;fillColor=#f8cecc;" edge="1" parent="1">
          <mxGeometry width="50" height="50" relative="1" as="geometry">
            <mxPoint x="440" y="214.76" as="sourcePoint" />
            <mxPoint x="470" y="214.76" as="targetPoint" />
          </mxGeometry>
        </mxCell>
        <mxCell id="bW95odGqxQcdRuqVzD2A-24" value="&lt;span style=&quot;font-size: 15px;&quot;&gt;chars&lt;/span&gt;" style="text;html=1;strokeColor=none;fillColor=none;align=center;verticalAlign=middle;whiteSpace=wrap;rounded=0;fontSize=17;fontColor=#4D4D4D;" vertex="1" parent="1">
          <mxGeometry x="480" y="278" width="80" height="30" as="geometry" />
        </mxCell>
        <mxCell id="bW95odGqxQcdRuqVzD2A-25" value="&lt;font style=&quot;font-size: 84px;&quot;&gt;L&lt;/font&gt;" style="text;html=1;strokeColor=none;fillColor=none;align=center;verticalAlign=middle;whiteSpace=wrap;rounded=0;fontSize=17;fontColor=#4D4D4D;" vertex="1" parent="1">
          <mxGeometry x="480" y="180" width="80" height="70" as="geometry" />
        </mxCell>
        <mxCell id="bW95odGqxQcdRuqVzD2A-26" value="" style="rounded=0;whiteSpace=wrap;html=1;fillColor=#000000;strokeWidth=2;strokeColor=none;opacity=10;" vertex="1" parent="1">
          <mxGeometry x="180" y="348" width="30" height="30" as="geometry" />
        </mxCell>
        <mxCell id="bW95odGqxQcdRuqVzD2A-27" value="" style="rounded=0;whiteSpace=wrap;html=1;fillColor=#000000;strokeWidth=2;strokeColor=none;opacity=70;" vertex="1" parent="1">
          <mxGeometry x="180" y="318" width="30" height="30" as="geometry" />
        </mxCell>
        <mxCell id="bW95odGqxQcdRuqVzD2A-28" value="" style="rounded=0;whiteSpace=wrap;html=1;fillColor=#000000;strokeWidth=2;strokeColor=none;opacity=20;" vertex="1" parent="1">
          <mxGeometry x="240" y="378" width="30" height="30" as="geometry" />
        </mxCell>
        <mxCell id="bW95odGqxQcdRuqVzD2A-29" value="" style="rounded=0;whiteSpace=wrap;html=1;fillColor=#000000;strokeWidth=2;strokeColor=none;opacity=90;" vertex="1" parent="1">
          <mxGeometry x="210" y="318" width="30" height="30" as="geometry" />
        </mxCell>
        <mxCell id="bW95odGqxQcdRuqVzD2A-30" value="" style="rounded=0;whiteSpace=wrap;html=1;fillColor=#000000;strokeWidth=2;strokeColor=none;opacity=20;" vertex="1" parent="1">
          <mxGeometry x="180" y="378" width="30" height="30" as="geometry" />
        </mxCell>
        <mxCell id="bW95odGqxQcdRuqVzD2A-31" value="" style="rounded=0;whiteSpace=wrap;html=1;fillColor=#000000;strokeWidth=2;strokeColor=none;opacity=80;" vertex="1" parent="1">
          <mxGeometry x="240" y="318" width="30" height="30" as="geometry" />
        </mxCell>
        <mxCell id="bW95odGqxQcdRuqVzD2A-32" value="" style="rounded=0;whiteSpace=wrap;html=1;fillColor=#000000;strokeWidth=2;strokeColor=none;opacity=60;" vertex="1" parent="1">
          <mxGeometry x="210" y="348" width="30" height="30" as="geometry" />
        </mxCell>
        <mxCell id="bW95odGqxQcdRuqVzD2A-33" value="" style="rounded=0;whiteSpace=wrap;html=1;fillColor=#000000;strokeWidth=2;strokeColor=none;opacity=50;" vertex="1" parent="1">
          <mxGeometry x="210" y="378" width="30" height="30" as="geometry" />
        </mxCell>
        <mxCell id="bW95odGqxQcdRuqVzD2A-34" value="" style="endArrow=classic;html=1;rounded=0;fontSize=11;fontColor=default;strokeWidth=3;strokeColor=#b85450;fillColor=#f8cecc;" edge="1" parent="1">
          <mxGeometry width="50" height="50" relative="1" as="geometry">
            <mxPoint x="290" y="362.65999999999997" as="sourcePoint" />
            <mxPoint x="320" y="362.65999999999997" as="targetPoint" />
          </mxGeometry>
        </mxCell>
        <mxCell id="bW95odGqxQcdRuqVzD2A-35" value="&lt;font style=&quot;font-size: 15px&quot;&gt;gray scale&lt;/font&gt;" style="text;html=1;strokeColor=none;fillColor=none;align=center;verticalAlign=middle;whiteSpace=wrap;rounded=0;fontSize=17;fontColor=#4D4D4D;" vertex="1" parent="1">
          <mxGeometry x="185" y="426" width="80" height="30" as="geometry" />
        </mxCell>
        <mxCell id="bW95odGqxQcdRuqVzD2A-36" value="" style="rounded=0;whiteSpace=wrap;html=1;fillColor=#000000;strokeWidth=2;strokeColor=none;opacity=10;" vertex="1" parent="1">
          <mxGeometry x="240" y="348" width="30" height="30" as="geometry" />
        </mxCell>
        <mxCell id="bW95odGqxQcdRuqVzD2A-37" value="&lt;font style=&quot;font-size: 17px&quot; color=&quot;#4d4d4d&quot;&gt;0&lt;/font&gt;" style="rounded=0;whiteSpace=wrap;html=1;fillColor=none;strokeWidth=2;strokeColor=#4D4D4D;" vertex="1" parent="1">
          <mxGeometry x="330" y="378" width="30" height="30" as="geometry" />
        </mxCell>
        <mxCell id="bW95odGqxQcdRuqVzD2A-38" value="&lt;font style=&quot;font-size: 17px&quot; color=&quot;#4d4d4d&quot;&gt;1&lt;/font&gt;" style="rounded=0;whiteSpace=wrap;html=1;fillColor=none;strokeWidth=2;strokeColor=#4D4D4D;" vertex="1" parent="1">
          <mxGeometry x="330" y="318" width="30" height="30" as="geometry" />
        </mxCell>
        <mxCell id="bW95odGqxQcdRuqVzD2A-39" value="&lt;font style=&quot;font-size: 17px&quot; color=&quot;#4d4d4d&quot;&gt;0&lt;/font&gt;" style="rounded=0;whiteSpace=wrap;html=1;fillColor=none;strokeWidth=2;strokeColor=#4D4D4D;" vertex="1" parent="1">
          <mxGeometry x="330" y="348" width="30" height="30" as="geometry" />
        </mxCell>
        <mxCell id="bW95odGqxQcdRuqVzD2A-40" value="&lt;font style=&quot;font-size: 17px&quot; color=&quot;#4d4d4d&quot;&gt;1&lt;/font&gt;" style="rounded=0;whiteSpace=wrap;html=1;fillColor=none;strokeWidth=2;strokeColor=#4D4D4D;" vertex="1" parent="1">
          <mxGeometry x="360" y="318" width="30" height="30" as="geometry" />
        </mxCell>
        <mxCell id="bW95odGqxQcdRuqVzD2A-41" value="&lt;font style=&quot;font-size: 17px&quot; color=&quot;#4d4d4d&quot;&gt;0&lt;/font&gt;" style="rounded=0;whiteSpace=wrap;html=1;fillColor=none;strokeWidth=2;strokeColor=#4D4D4D;" vertex="1" parent="1">
          <mxGeometry x="390" y="378" width="30" height="30" as="geometry" />
        </mxCell>
        <mxCell id="bW95odGqxQcdRuqVzD2A-42" value="&lt;font style=&quot;font-size: 17px&quot; color=&quot;#4d4d4d&quot;&gt;1&lt;/font&gt;" style="rounded=0;whiteSpace=wrap;html=1;fillColor=none;strokeWidth=2;strokeColor=#4D4D4D;" vertex="1" parent="1">
          <mxGeometry x="360" y="348" width="30" height="30" as="geometry" />
        </mxCell>
        <mxCell id="bW95odGqxQcdRuqVzD2A-43" value="&lt;font style=&quot;font-size: 17px&quot; color=&quot;#4d4d4d&quot;&gt;1&lt;/font&gt;" style="rounded=0;whiteSpace=wrap;html=1;fillColor=none;strokeWidth=2;strokeColor=#4D4D4D;" vertex="1" parent="1">
          <mxGeometry x="390" y="318" width="30" height="30" as="geometry" />
        </mxCell>
        <mxCell id="bW95odGqxQcdRuqVzD2A-44" value="&lt;font style=&quot;font-size: 17px&quot; color=&quot;#4d4d4d&quot;&gt;1&lt;/font&gt;" style="rounded=0;whiteSpace=wrap;html=1;fillColor=none;strokeWidth=2;strokeColor=#4D4D4D;" vertex="1" parent="1">
          <mxGeometry x="360" y="378" width="30" height="30" as="geometry" />
        </mxCell>
        <mxCell id="bW95odGqxQcdRuqVzD2A-45" value="&lt;font style=&quot;font-size: 17px&quot; color=&quot;#4d4d4d&quot;&gt;0&lt;/font&gt;" style="rounded=0;whiteSpace=wrap;html=1;fillColor=none;strokeWidth=2;strokeColor=#4D4D4D;" vertex="1" parent="1">
          <mxGeometry x="390" y="348" width="30" height="30" as="geometry" />
        </mxCell>
        <mxCell id="bW95odGqxQcdRuqVzD2A-46" value="&lt;font style=&quot;font-size: 15px&quot;&gt;bits&lt;/font&gt;" style="text;html=1;strokeColor=none;fillColor=none;align=center;verticalAlign=middle;whiteSpace=wrap;rounded=0;fontSize=17;fontColor=#4D4D4D;" vertex="1" parent="1">
          <mxGeometry x="335" y="426" width="80" height="30" as="geometry" />
        </mxCell>
        <mxCell id="bW95odGqxQcdRuqVzD2A-47" value="" style="endArrow=classic;html=1;rounded=0;fontSize=11;fontColor=default;strokeWidth=3;strokeColor=#b85450;fillColor=#f8cecc;" edge="1" parent="1">
          <mxGeometry width="50" height="50" relative="1" as="geometry">
            <mxPoint x="440" y="362.76" as="sourcePoint" />
            <mxPoint x="470" y="362.76" as="targetPoint" />
          </mxGeometry>
        </mxCell>
        <mxCell id="bW95odGqxQcdRuqVzD2A-48" value="&lt;span style=&quot;font-size: 15px;&quot;&gt;chars&lt;/span&gt;" style="text;html=1;strokeColor=none;fillColor=none;align=center;verticalAlign=middle;whiteSpace=wrap;rounded=0;fontSize=17;fontColor=#4D4D4D;" vertex="1" parent="1">
          <mxGeometry x="480" y="426" width="80" height="30" as="geometry" />
        </mxCell>
        <mxCell id="bW95odGqxQcdRuqVzD2A-49" value="&lt;font style=&quot;font-size: 84px;&quot;&gt;T&lt;/font&gt;" style="text;html=1;strokeColor=none;fillColor=none;align=center;verticalAlign=middle;whiteSpace=wrap;rounded=0;fontSize=17;fontColor=#4D4D4D;" vertex="1" parent="1">
          <mxGeometry x="480" y="328" width="80" height="70" as="geometry" />
        </mxCell>
        <mxCell id="bW95odGqxQcdRuqVzD2A-51" value="" style="rounded=0;whiteSpace=wrap;html=1;fillColor=#000000;strokeWidth=2;strokeColor=none;opacity=10;" vertex="1" parent="1">
          <mxGeometry x="240" y="468" width="30" height="30" as="geometry" />
        </mxCell>
        <mxCell id="bW95odGqxQcdRuqVzD2A-52" value="" style="rounded=0;whiteSpace=wrap;html=1;fillColor=#000000;strokeWidth=2;strokeColor=none;opacity=70;" vertex="1" parent="1">
          <mxGeometry x="240" y="498" width="30" height="30" as="geometry" />
        </mxCell>
        <mxCell id="bW95odGqxQcdRuqVzD2A-53" value="" style="rounded=0;whiteSpace=wrap;html=1;fillColor=#000000;strokeWidth=2;strokeColor=none;opacity=20;" vertex="1" parent="1">
          <mxGeometry x="240" y="528" width="30" height="30" as="geometry" />
        </mxCell>
        <mxCell id="bW95odGqxQcdRuqVzD2A-54" value="" style="rounded=0;whiteSpace=wrap;html=1;fillColor=#000000;strokeWidth=2;strokeColor=none;opacity=90;" vertex="1" parent="1">
          <mxGeometry x="210" y="468" width="30" height="30" as="geometry" />
        </mxCell>
        <mxCell id="bW95odGqxQcdRuqVzD2A-55" value="" style="rounded=0;whiteSpace=wrap;html=1;fillColor=#000000;strokeWidth=2;strokeColor=none;opacity=20;" vertex="1" parent="1">
          <mxGeometry x="180" y="528" width="30" height="30" as="geometry" />
        </mxCell>
        <mxCell id="bW95odGqxQcdRuqVzD2A-56" value="" style="rounded=0;whiteSpace=wrap;html=1;fillColor=#000000;strokeWidth=2;strokeColor=none;opacity=80;" vertex="1" parent="1">
          <mxGeometry x="180" y="498" width="30" height="30" as="geometry" />
        </mxCell>
        <mxCell id="bW95odGqxQcdRuqVzD2A-57" value="" style="rounded=0;whiteSpace=wrap;html=1;fillColor=#000000;strokeWidth=2;strokeColor=none;opacity=60;" vertex="1" parent="1">
          <mxGeometry x="210" y="498" width="30" height="30" as="geometry" />
        </mxCell>
        <mxCell id="bW95odGqxQcdRuqVzD2A-58" value="" style="rounded=0;whiteSpace=wrap;html=1;fillColor=#000000;strokeWidth=2;strokeColor=none;opacity=50;" vertex="1" parent="1">
          <mxGeometry x="210" y="528" width="30" height="30" as="geometry" />
        </mxCell>
        <mxCell id="bW95odGqxQcdRuqVzD2A-59" value="" style="endArrow=classic;html=1;rounded=0;fontSize=11;fontColor=default;strokeWidth=3;strokeColor=#b85450;fillColor=#f8cecc;" edge="1" parent="1">
          <mxGeometry width="50" height="50" relative="1" as="geometry">
            <mxPoint x="290" y="512.66" as="sourcePoint" />
            <mxPoint x="320" y="512.66" as="targetPoint" />
          </mxGeometry>
        </mxCell>
        <mxCell id="bW95odGqxQcdRuqVzD2A-60" value="&lt;font style=&quot;font-size: 15px&quot;&gt;gray scale&lt;/font&gt;" style="text;html=1;strokeColor=none;fillColor=none;align=center;verticalAlign=middle;whiteSpace=wrap;rounded=0;fontSize=17;fontColor=#4D4D4D;" vertex="1" parent="1">
          <mxGeometry x="185" y="576" width="80" height="30" as="geometry" />
        </mxCell>
        <mxCell id="bW95odGqxQcdRuqVzD2A-61" value="" style="rounded=0;whiteSpace=wrap;html=1;fillColor=#000000;strokeWidth=2;strokeColor=none;opacity=10;" vertex="1" parent="1">
          <mxGeometry x="180" y="468" width="30" height="30" as="geometry" />
        </mxCell>
        <mxCell id="bW95odGqxQcdRuqVzD2A-62" value="&lt;font style=&quot;font-size: 17px&quot; color=&quot;#4d4d4d&quot;&gt;0&lt;/font&gt;" style="rounded=0;whiteSpace=wrap;html=1;fillColor=none;strokeWidth=2;strokeColor=#4D4D4D;" vertex="1" parent="1">
          <mxGeometry x="330" y="528" width="30" height="30" as="geometry" />
        </mxCell>
        <mxCell id="bW95odGqxQcdRuqVzD2A-63" value="&lt;font style=&quot;font-size: 17px&quot; color=&quot;#4d4d4d&quot;&gt;1&lt;/font&gt;" style="rounded=0;whiteSpace=wrap;html=1;fillColor=none;strokeWidth=2;strokeColor=#4D4D4D;" vertex="1" parent="1">
          <mxGeometry x="390" y="498" width="30" height="30" as="geometry" />
        </mxCell>
        <mxCell id="bW95odGqxQcdRuqVzD2A-64" value="&lt;font style=&quot;font-size: 17px&quot; color=&quot;#4d4d4d&quot;&gt;0&lt;/font&gt;" style="rounded=0;whiteSpace=wrap;html=1;fillColor=none;strokeWidth=2;strokeColor=#4D4D4D;" vertex="1" parent="1">
          <mxGeometry x="330" y="468" width="30" height="30" as="geometry" />
        </mxCell>
        <mxCell id="bW95odGqxQcdRuqVzD2A-65" value="&lt;font style=&quot;font-size: 17px&quot; color=&quot;#4d4d4d&quot;&gt;1&lt;/font&gt;" style="rounded=0;whiteSpace=wrap;html=1;fillColor=none;strokeWidth=2;strokeColor=#4D4D4D;" vertex="1" parent="1">
          <mxGeometry x="360" y="468" width="30" height="30" as="geometry" />
        </mxCell>
        <mxCell id="bW95odGqxQcdRuqVzD2A-66" value="&lt;font style=&quot;font-size: 17px&quot; color=&quot;#4d4d4d&quot;&gt;0&lt;/font&gt;" style="rounded=0;whiteSpace=wrap;html=1;fillColor=none;strokeWidth=2;strokeColor=#4D4D4D;" vertex="1" parent="1">
          <mxGeometry x="390" y="528" width="30" height="30" as="geometry" />
        </mxCell>
        <mxCell id="bW95odGqxQcdRuqVzD2A-67" value="&lt;font style=&quot;font-size: 17px&quot; color=&quot;#4d4d4d&quot;&gt;1&lt;/font&gt;" style="rounded=0;whiteSpace=wrap;html=1;fillColor=none;strokeWidth=2;strokeColor=#4D4D4D;" vertex="1" parent="1">
          <mxGeometry x="360" y="498" width="30" height="30" as="geometry" />
        </mxCell>
        <mxCell id="bW95odGqxQcdRuqVzD2A-68" value="&lt;font style=&quot;font-size: 17px&quot; color=&quot;#4d4d4d&quot;&gt;1&lt;/font&gt;" style="rounded=0;whiteSpace=wrap;html=1;fillColor=none;strokeWidth=2;strokeColor=#4D4D4D;" vertex="1" parent="1">
          <mxGeometry x="330" y="498" width="30" height="30" as="geometry" />
        </mxCell>
        <mxCell id="bW95odGqxQcdRuqVzD2A-69" value="&lt;font style=&quot;font-size: 17px&quot; color=&quot;#4d4d4d&quot;&gt;1&lt;/font&gt;" style="rounded=0;whiteSpace=wrap;html=1;fillColor=none;strokeWidth=2;strokeColor=#4D4D4D;" vertex="1" parent="1">
          <mxGeometry x="360" y="528" width="30" height="30" as="geometry" />
        </mxCell>
        <mxCell id="bW95odGqxQcdRuqVzD2A-70" value="&lt;font style=&quot;font-size: 17px&quot; color=&quot;#4d4d4d&quot;&gt;0&lt;/font&gt;" style="rounded=0;whiteSpace=wrap;html=1;fillColor=none;strokeWidth=2;strokeColor=#4D4D4D;" vertex="1" parent="1">
          <mxGeometry x="390" y="468" width="30" height="30" as="geometry" />
        </mxCell>
        <mxCell id="bW95odGqxQcdRuqVzD2A-71" value="&lt;font style=&quot;font-size: 15px&quot;&gt;bits&lt;/font&gt;" style="text;html=1;strokeColor=none;fillColor=none;align=center;verticalAlign=middle;whiteSpace=wrap;rounded=0;fontSize=17;fontColor=#4D4D4D;" vertex="1" parent="1">
          <mxGeometry x="335" y="576" width="80" height="30" as="geometry" />
        </mxCell>
        <mxCell id="bW95odGqxQcdRuqVzD2A-72" value="" style="endArrow=classic;html=1;rounded=0;fontSize=11;fontColor=default;strokeWidth=3;strokeColor=#b85450;fillColor=#f8cecc;" edge="1" parent="1">
          <mxGeometry width="50" height="50" relative="1" as="geometry">
            <mxPoint x="440" y="512.76" as="sourcePoint" />
            <mxPoint x="470" y="512.76" as="targetPoint" />
          </mxGeometry>
        </mxCell>
        <mxCell id="bW95odGqxQcdRuqVzD2A-73" value="&lt;span style=&quot;font-size: 15px;&quot;&gt;chars&lt;/span&gt;" style="text;html=1;strokeColor=none;fillColor=none;align=center;verticalAlign=middle;whiteSpace=wrap;rounded=0;fontSize=17;fontColor=#4D4D4D;" vertex="1" parent="1">
          <mxGeometry x="480" y="576" width="80" height="30" as="geometry" />
        </mxCell>
        <mxCell id="bW95odGqxQcdRuqVzD2A-74" value="&lt;font style=&quot;font-size: 84px;&quot;&gt;+&lt;/font&gt;" style="text;html=1;strokeColor=none;fillColor=none;align=center;verticalAlign=middle;whiteSpace=wrap;rounded=0;fontSize=17;fontColor=#4D4D4D;" vertex="1" parent="1">
          <mxGeometry x="480" y="478" width="80" height="70" as="geometry" />
        </mxCell>
      </root>
    </mxGraphModel>
  </diagram>
</mxfile>
